12 / Ошибка / 16:01:25 - 25.10.17 / ЗакрытьФорму / Закрыть форму. / Авто. / Выполнен / Ошибка сценария теста. Попытка закрыть закрытую форму.
20 / Ошибка / 16:11:41 - 25.10.17 / ЗаполнитьРеквизиты / Заполнить реквизиты шапки / Авто. / Выполнен / Элемент формы VIN_РФ находится в состоянии "Только чтение"
20 / Норма  / 16:11:41 - 25.10.17 / ЗаполнитьРеквизиты / Заполнить реквизиты шапки / Авто. / Выполнен / Заполнение на форме "VIN_РФ" не требуется.
20 / Ошибка / 16:11:41 - 25.10.17 / ЗаполнитьРеквизиты / Заполнить реквизиты шапки / Авто. / Выполнен / Элемент формы ИдентификаторУВЭОС находится в состоянии "Только чтение"
20 / Норма  / 16:11:41 - 25.10.17 / ЗаполнитьРеквизиты / Заполнить реквизиты шапки / Авто. / Выполнен / Заполнение на форме "ИдентификаторУВЭОС" не требуется.
20 / Норма  / 16:11:41 - 25.10.17 / ЗаполнитьРеквизиты / Заполнить реквизиты шапки / Авто. / Выполнен / Реквизиты шапки заполнены.
21 / Норма  / 16:11:41 - 25.10.17 / ЗакрытьФорму / Записать элемент справочника и закрыть форму. / Авто. / Выполнен / Объект записан в форме. Форма закрыта.
22 / Норма  / 16:11:42 - 25.10.17 / ВосстановлениеОбъектовJSON / Сериализация и восстановление объектов / Авто. / Выполнен / Объекты загружены.
24 / Норма  / 16:11:42 - 25.10.17 / ОткрытьФорму / Открыть форму / Авто. / Выполнен / Форма открыта.
25 / Норма  / 16:11:43 - 25.10.17 / ВыполнитьСкрипт / сменить ШК / Авто. / Выполнен / Скрипт выполнен.
26 / Норма  / 16:11:43 - 25.10.17 / НажатьКнопку / Нажать кнопку / Авто. / Выполнен / Кнопка нажата.
27 / Норма  / 16:11:43 - 25.10.17 / ЗакрытьФорму / Закрыть форму. / Авто. / Выполнен / Форма закрыта.
29 / Норма  / 16:11:44 - 25.10.17 / ОткрытьФорму / Открыть форму / Авто. / Выполнен / Форма открыта.
30 / Норма  / 16:11:44 - 25.10.17 / ЗаполнитьРеквизиты / Заполнить реквизиты шапки / Авто. / Выполнен / Заполнение на форме "Дата" не требуется.
30 / Норма  / 16:11:44 - 25.10.17 / ЗаполнитьРеквизиты / Заполнить реквизиты шапки / Авто. / Выполнен / Реквизиты шапки заполнены.
31 / Норма  / 16:12:20 - 25.10.17 / НажатьКнопку / Нажать кнопку / Авто. / Выполнен / Кнопка нажата.
32 / Норма  / 16:12:20 - 25.10.17 / ЗакрытьФорму / Закрыть форму. / Авто. / Выполнен / Форма закрыта.
34 / Норма  / 16:12:20 - 25.10.17 / ОткрытьФорму / Открыть форму / Авто. / Выполнен / Форма открыта.
35 / Норма  / 16:12:22 - 25.10.17 / НажатьКнопку / Нажать кнопку / Авто. / Выполнен / Кнопка нажата.
36 / Норма  / 16:12:22 - 25.10.17 / ЗакрытьФорму / Закрыть форму. / Авто. / Выполнен / Форма закрыта.
38 / Норма  / 16:12:22 - 25.10.17 / ОткрытьФорму / Открыть форму / Авто. / Выполнен / Форма открыта.
39 / Норма  / 16:12:23 - 25.10.17 / НажатьКнопку / Нажать кнопку / Авто. / Выполнен / Кнопка нажата.
40 / Норма  / 16:12:23 - 25.10.17 / ЗакрытьФорму / Закрыть форму. / Авто. / Выполнен / Форма закрыта.
42 / Норма  / 16:12:23 - 25.10.17 / ОткрытьФорму / Открыть форму / Авто. / Выполнен / Форма открыта.
43 / Норма  / 16:12:23 - 25.10.17 / ЗаполнитьРеквизиты / Заполнить реквизиты шапки / Авто. / Выполнен / Реквизиты шапки заполнены.
44 / Норма  / 16:12:24 - 25.10.17 / НажатьКнопку / Нажать кнопку / Авто. / Выполнен / Кнопка нажата.
45 / Норма  / 16:12:24 - 25.10.17 / ЗакрытьФорму / Закрыть форму. / Авто. / Выполнен / Форма закрыта.
47 / Норма  / 16:12:24 - 25.10.17 / ОткрытьФорму / Открыть форму / Авто. / Выполнен / Форма открыта.
48 / Норма  / 16:12:25 - 25.10.17 / НажатьКнопку / Нажать кнопку / Авто. / Выполнен / Кнопка нажата.
49 / Норма  / 16:12:25 - 25.10.17 / ЗакрытьФорму / Закрыть форму. / Авто. / Выполнен / Форма закрыта.
РуководительПроизводства
25 октября 2017 г. 16:12:25 Окончание выполнения теста
Тест выполнен.
20 / Ошибка / 17:30:48 - 25.10.17 / ЗаполнитьРеквизиты / Заполнить реквизиты шапки / Авто. / Выполнен / Элемент формы VIN_РФ находится в состоянии "Только чтение"
20 / Норма  / 17:30:48 - 25.10.17 / ЗаполнитьРеквизиты / Заполнить реквизиты шапки / Авто. / Выполнен / Заполнение на форме "VIN_РФ" не требуется.
20 / Ошибка / 17:30:48 - 25.10.17 / ЗаполнитьРеквизиты / Заполнить реквизиты шапки / Авто. / Выполнен / Элемент формы ИдентификаторУВЭОС находится в состоянии "Только чтение"
20 / Норма  / 17:30:48 - 25.10.17 / ЗаполнитьРеквизиты / Заполнить реквизиты шапки / Авто. / Выполнен / Заполнение на форме "ИдентификаторУВЭОС" не требуется.
20 / Норма  / 17:30:48 - 25.10.17 / ЗаполнитьРеквизиты / Заполнить реквизиты шапки / Авто. / Выполнен / Реквизиты шапки заполнены.
21 / Норма  / 17:30:48 - 25.10.17 / ЗакрытьФорму / Записать элемент справочника и закрыть форму. / Авто. / Выполнен / Объект записан в форме. Форма закрыта.
22 / Норма  / 17:30:48 - 25.10.17 / ВосстановлениеОбъектовJSON / Сериализация и восстановление объектов / Авто. / Выполнен / Объекты загружены.
24 / Норма  / 17:30:48 - 25.10.17 / ОткрытьФорму / Открыть форму / Авто. / Выполнен / Форма открыта.
25 / Норма  / 17:30:49 - 25.10.17 / ВыполнитьСкрипт / сменить ШК / Авто. / Выполнен / Скрипт выполнен.
26 / Норма  / 17:30:50 - 25.10.17 / НажатьКнопку / Нажать кнопку / Авто. / Выполнен / Кнопка нажата.
27 / Норма  / 17:30:50 - 25.10.17 / ЗакрытьФорму / Закрыть форму. / Авто. / Выполнен / Форма закрыта.
29 / Норма  / 17:30:50 - 25.10.17 / ОткрытьФорму / Открыть форму / Авто. / Выполнен / Форма открыта.
30 / Норма  / 17:30:50 - 25.10.17 / ЗаполнитьРеквизиты / Заполнить реквизиты шапки / Авто. / Выполнен / Заполнение на форме "Дата" не требуется.
30 / Норма  / 17:30:50 - 25.10.17 / ЗаполнитьРеквизиты / Заполнить реквизиты шапки / Авто. / Выполнен / Реквизиты шапки заполнены.
31 / Норма  / 17:30:51 - 25.10.17 / НажатьКнопку / Нажать кнопку / Авто. / Выполнен / Кнопка нажата.
32 / Норма  / 17:30:51 - 25.10.17 / ЗакрытьФорму / Закрыть форму. / Авто. / Выполнен / Форма закрыта.
34 / Норма  / 17:30:51 - 25.10.17 / ОткрытьФорму / Открыть форму / Авто. / Выполнен / Форма открыта.
35 / Норма  / 17:30:52 - 25.10.17 / НажатьКнопку / Нажать кнопку / Авто. / Выполнен / Кнопка нажата.
36 / Норма  / 17:30:52 - 25.10.17 / ЗакрытьФорму / Закрыть форму. / Авто. / Выполнен / Форма закрыта.
38 / Норма  / 17:30:52 - 25.10.17 / ОткрытьФорму / Открыть форму / Авто. / Выполнен / Форма открыта.
39 / Норма  / 17:30:53 - 25.10.17 / НажатьКнопку / Нажать кнопку / Авто. / Выполнен / Кнопка нажата.
40 / Норма  / 17:30:53 - 25.10.17 / ЗакрытьФорму / Закрыть форму. / Авто. / Выполнен / Форма закрыта.
42 / Норма  / 17:30:53 - 25.10.17 / ОткрытьФорму / Открыть форму / Авто. / Выполнен / Форма открыта.
43 / Норма  / 17:30:53 - 25.10.17 / ЗаполнитьРеквизиты / Заполнить реквизиты шапки / Авто. / Выполнен / Реквизиты шапки заполнены.
44 / Норма  / 17:30:54 - 25.10.17 / НажатьКнопку / Нажать кнопку / Авто. / Выполнен / Кнопка нажата.
45 / Норма  / 17:30:54 - 25.10.17 / ЗакрытьФорму / Закрыть форму. / Авто. / Выполнен / Форма закрыта.
47 / Норма  / 17:30:54 - 25.10.17 / ОткрытьФорму / Открыть форму / Авто. / Выполнен / Форма открыта.
48 / Норма  / 17:30:55 - 25.10.17 / НажатьКнопку / Нажать кнопку / Авто. / Выполнен / Кнопка нажата.
49 / Норма  / 17:30:55 - 25.10.17 / ЗакрытьФорму / Закрыть форму. / Авто. / Выполнен / Форма закрыта.
РуководительПроизводства
25 октября 2017 г. 17:30:55 Окончание выполнения теста
Тест выполнен.
20 / Ошибка / 15:06:11 - 27.10.17 / ЗаполнитьРеквизиты / Заполнить реквизиты шапки / Авто. / Выполнен / Элемент формы VIN_РФ находится в состоянии "Только чтение"
20 / Норма  / 15:06:11 - 27.10.17 / ЗаполнитьРеквизиты / Заполнить реквизиты шапки / Авто. / Выполнен / Заполнение на форме "VIN_РФ" не требуется.
20 / Ошибка / 15:06:11 - 27.10.17 / ЗаполнитьРеквизиты / Заполнить реквизиты шапки / Авто. / Выполнен / Элемент формы ИдентификаторУВЭОС находится в состоянии "Только чтение"
20 / Норма  / 15:06:11 - 27.10.17 / ЗаполнитьРеквизиты / Заполнить реквизиты шапки / Авто. / Выполнен / Заполнение на форме "ИдентификаторУВЭОС" не требуется.
20 / Норма  / 15:06:11 - 27.10.17 / ЗаполнитьРеквизиты / Заполнить реквизиты шапки / Авто. / Выполнен / Реквизиты шапки заполнены.
21 / Норма  / 15:06:12 - 27.10.17 / ЗакрытьФорму / Записать элемент справочника и закрыть форму. / Авто. / Выполнен / Объект записан в форме. Форма закрыта.
22 / Норма  / 15:06:12 - 27.10.17 / ВосстановлениеОбъектовJSON / Сериализация и восстановление объектов / Авто. / Выполнен / Объекты загружены.
24 / Норма  / 15:06:12 - 27.10.17 / ОткрытьФорму / Открыть форму / Авто. / Выполнен / Форма открыта.
25 / Норма  / 15:06:12 - 27.10.17 / ВыполнитьСкрипт / сменить ШК / Авто. / Выполнен / Скрипт выполнен.
26 / Норма  / 15:06:13 - 27.10.17 / НажатьКнопку / Нажать кнопку / Авто. / Выполнен / Кнопка нажата.
27 / Норма  / 15:06:13 - 27.10.17 / ЗакрытьФорму / Закрыть форму. / Авто. / Выполнен / Форма закрыта.
29 / Норма  / 15:06:13 - 27.10.17 / ОткрытьФорму / Открыть форму / Авто. / Выполнен / Форма открыта.
30 / Норма  / 15:06:13 - 27.10.17 / ЗаполнитьРеквизиты / Заполнить реквизиты шапки / Авто. / Выполнен / Заполнение на форме "Дата" не требуется.
30 / Норма  / 15:06:13 - 27.10.17 / ЗаполнитьРеквизиты / Заполнить реквизиты шапки / Авто. / Выполнен / Реквизиты шапки заполнены.
31 / Норма  / 15:06:40 - 27.10.17 / НажатьКнопку / Нажать кнопку / Авто. / Выполнен / Кнопка нажата.
32 / Норма  / 15:06:40 - 27.10.17 / ЗакрытьФорму / Закрыть форму. / Авто. / Выполнен / Форма закрыта.
34 / Норма  / 15:06:40 - 27.10.17 / ОткрытьФорму / Открыть форму / Авто. / Выполнен / Форма открыта.
35 / Норма  / 15:06:41 - 27.10.17 / НажатьКнопку / Нажать кнопку / Авто. / Выполнен / Кнопка нажата.
36 / Норма  / 15:06:42 - 27.10.17 / ЗакрытьФорму / Закрыть форму. / Авто. / Выполнен / Форма закрыта.
38 / Норма  / 15:06:42 - 27.10.17 / ОткрытьФорму / Открыть форму / Авто. / Выполнен / Форма открыта.
39 / Норма  / 15:06:43 - 27.10.17 / НажатьКнопку / Нажать кнопку / Авто. / Выполнен / Кнопка нажата.
40 / Норма  / 15:06:43 - 27.10.17 / ЗакрытьФорму / Закрыть форму. / Авто. / Выполнен / Форма закрыта.
42 / Норма  / 15:06:43 - 27.10.17 / ОткрытьФорму / Открыть форму / Авто. / Выполнен / Форма открыта.
43 / Норма  / 15:06:43 - 27.10.17 / ЗаполнитьРеквизиты / Заполнить реквизиты шапки / Авто. / Выполнен / Реквизиты шапки заполнены.
44 / Норма  / 15:06:44 - 27.10.17 / НажатьКнопку / Нажать кнопку / Авто. / Выполнен / Кнопка нажата.
45 / Норма  / 15:06:44 - 27.10.17 / ЗакрытьФорму / Закрыть форму. / Авто. / Выполнен / Форма закрыта.
47 / Норма  / 15:06:44 - 27.10.17 / ОткрытьФорму / Открыть форму / Авто. / Выполнен / Форма открыта.
48 / Норма  / 15:06:45 - 27.10.17 / НажатьКнопку / Нажать кнопку / Авто. / Выполнен / Кнопка нажата.
49 / Норма  / 15:06:45 - 27.10.17 / ЗакрытьФорму / Закрыть форму. / Авто. / Выполнен / Форма закрыта.
РуководительПроизводства
27 октября 2017 г. 15:06:45 Окончание выполнения теста
Тест выполнен.
20 / Ошибка / 15:09:10 - 27.10.17 / ЗаполнитьРеквизиты / Заполнить реквизиты шапки / Авто. / Выполнен / Элемент формы VIN_РФ находится в состоянии "Только чтение"
20 / Норма  / 15:09:10 - 27.10.17 / ЗаполнитьРеквизиты / Заполнить реквизиты шапки / Авто. / Выполнен / Заполнение на форме "VIN_РФ" не требуется.
20 / Ошибка / 15:09:10 - 27.10.17 / ЗаполнитьРеквизиты / Заполнить реквизиты шапки / Авто. / Выполнен / Элемент формы ИдентификаторУВЭОС находится в состоянии "Только чтение"
20 / Норма  / 15:09:10 - 27.10.17 / ЗаполнитьРеквизиты / Заполнить реквизиты шапки / Авто. / Выполнен / Заполнение на форме "ИдентификаторУВЭОС" не требуется.
20 / Норма  / 15:09:10 - 27.10.17 / ЗаполнитьРеквизиты / Заполнить реквизиты шапки / Авто. / Выполнен / Реквизиты шапки заполнены.
21 / Норма  / 15:09:10 - 27.10.17 / ЗакрытьФорму / Записать элемент справочника и закрыть форму. / Авто. / Выполнен / Объект записан в форме. Форма закрыта.
22 / Норма  / 15:09:10 - 27.10.17 / ВосстановлениеОбъектовJSON / Сериализация и восстановление объектов / Авто. / Выполнен / Объекты загружены.
24 / Норма  / 15:09:10 - 27.10.17 / ОткрытьФорму / Открыть форму / Авто. / Выполнен / Форма открыта.
25 / Норма  / 15:09:11 - 27.10.17 / ВыполнитьСкрипт / сменить ШК / Авто. / Выполнен / Скрипт выполнен.
26 / Норма  / 15:09:12 - 27.10.17 / НажатьКнопку / Нажать кнопку / Авто. / Выполнен / Кнопка нажата.
27 / Норма  / 15:09:12 - 27.10.17 / ЗакрытьФорму / Закрыть форму. / Авто. / Выполнен / Форма закрыта.
29 / Норма  / 15:09:12 - 27.10.17 / ОткрытьФорму / Открыть форму / Авто. / Выполнен / Форма открыта.
30 / Норма  / 15:09:12 - 27.10.17 / ЗаполнитьРеквизиты / Заполнить реквизиты шапки / Авто. / Выполнен / Заполнение на форме "Дата" не требуется.
30 / Норма  / 15:09:12 - 27.10.17 / ЗаполнитьРеквизиты / Заполнить реквизиты шапки / Авто. / Выполнен / Реквизиты шапки заполнены.
31 / Норма  / 15:09:39 - 27.10.17 / НажатьКнопку / Нажать кнопку / Авто. / Выполнен / Кнопка нажата.
32 / Норма  / 15:09:39 - 27.10.17 / ЗакрытьФорму / Закрыть форму. / Авто. / Выполнен / Форма закрыта.
34 / Норма  / 15:09:40 - 27.10.17 / ОткрытьФорму / Открыть форму / Авто. / Выполнен / Форма открыта.
35 / Норма  / 15:09:41 - 27.10.17 / НажатьКнопку / Нажать кнопку / Авто. / Выполнен / Кнопка нажата.
36 / Норма  / 15:09:41 - 27.10.17 / ЗакрытьФорму / Закрыть форму. / Авто. / Выполнен / Форма закрыта.
38 / Норма  / 15:09:41 - 27.10.17 / ОткрытьФорму / Открыть форму / Авто. / Выполнен / Форма открыта.
39 / Норма  / 15:09:42 - 27.10.17 / НажатьКнопку / Нажать кнопку / Авто. / Выполнен / Кнопка нажата.
40 / Норма  / 15:09:42 - 27.10.17 / ЗакрытьФорму / Закрыть форму. / Авто. / Выполнен / Форма закрыта.
42 / Норма  / 15:09:42 - 27.10.17 / ОткрытьФорму / Открыть форму / Авто. / Выполнен / Форма открыта.
43 / Норма  / 15:09:43 - 27.10.17 / ЗаполнитьРеквизиты / Заполнить реквизиты шапки / Авто. / Выполнен / Реквизиты шапки заполнены.
44 / Норма  / 15:09:44 - 27.10.17 / НажатьКнопку / Нажать кнопку / Авто. / Выполнен / Кнопка нажата.
45 / Норма  / 15:09:44 - 27.10.17 / ЗакрытьФорму / Закрыть форму. / Авто. / Выполнен / Форма закрыта.
47 / Норма  / 15:09:44 - 27.10.17 / ОткрытьФорму / Открыть форму / Авто. / Выполнен / Форма открыта.
48 / Норма  / 15:09:45 - 27.10.17 / НажатьКнопку / Нажать кнопку / Авто. / Выполнен / Кнопка нажата.
49 / Норма  / 15:09:45 - 27.10.17 / ЗакрытьФорму / Закрыть форму. / Авто. / Выполнен / Форма закрыта.
РуководительПроизводства
27 октября 2017 г. 15:09:45 Окончание выполнения теста
Тест выполнен.
20 / Ошибка / 16:02:55 - 27.10.17 / ЗаполнитьРеквизиты / Заполнить реквизиты шапки / Авто. / Выполнен / Элемент формы VIN_РФ находится в состоянии "Только чтение"
20 / Норма  / 16:02:55 - 27.10.17 / ЗаполнитьРеквизиты / Заполнить реквизиты шапки / Авто. / Выполнен / Заполнение на форме "VIN_РФ" не требуется.
20 / Ошибка / 16:02:55 - 27.10.17 / ЗаполнитьРеквизиты / Заполнить реквизиты шапки / Авто. / Выполнен / Элемент формы ИдентификаторУВЭОС находится в состоянии "Только чтение"
20 / Норма  / 16:02:55 - 27.10.17 / ЗаполнитьРеквизиты / Заполнить реквизиты шапки / Авто. / Выполнен / Заполнение на форме "ИдентификаторУВЭОС" не требуется.
20 / Норма  / 16:02:55 - 27.10.17 / ЗаполнитьРеквизиты / Заполнить реквизиты шапки / Авто. / Выполнен / Реквизиты шапки заполнены.
21 / Норма  / 16:02:55 - 27.10.17 / ЗакрытьФорму / Записать элемент справочника и закрыть форму. / Авто. / Выполнен / Объект записан в форме. Форма закрыта.
22 / Норма  / 16:02:55 - 27.10.17 / ВосстановлениеОбъектовJSON / Сериализация и восстановление объектов / Авто. / Выполнен / Объекты загружены.
24 / Норма  / 16:02:56 - 27.10.17 / ОткрытьФорму / Открыть форму / Авто. / Выполнен / Форма открыта.
25 / Норма  / 16:02:56 - 27.10.17 / ВыполнитьСкрипт / сменить ШК / Авто. / Выполнен / Скрипт выполнен.
26 / Норма  / 16:02:57 - 27.10.17 / НажатьКнопку / Нажать кнопку / Авто. / Выполнен / Кнопка нажата.
27 / Норма  / 16:02:57 - 27.10.17 / ЗакрытьФорму / Закрыть форму. / Авто. / Выполнен / Форма закрыта.
29 / Норма  / 16:02:57 - 27.10.17 / ОткрытьФорму / Открыть форму / Авто. / Выполнен / Форма открыта.
30 / Норма  / 16:02:57 - 27.10.17 / ЗаполнитьРеквизиты / Заполнить реквизиты шапки / Авто. / Выполнен / Заполнение на форме "Дата" не требуется.
30 / Норма  / 16:02:57 - 27.10.17 / ЗаполнитьРеквизиты / Заполнить реквизиты шапки / Авто. / Выполнен / Реквизиты шапки заполнены.
31 / Норма  / 16:03:22 - 27.10.17 / НажатьКнопку / Нажать кнопку / Авто. / Выполнен / Кнопка нажата.
32 / Норма  / 16:03:22 - 27.10.17 / ЗакрытьФорму / Закрыть форму. / Авто. / Выполнен / Форма закрыта.
34 / Норма  / 16:03:22 - 27.10.17 / ОткрытьФорму / Открыть форму / Авто. / Выполнен / Форма открыта.
35 / Норма  / 16:03:24 - 27.10.17 / НажатьКнопку / Нажать кнопку / Авто. / Выполнен / Кнопка нажата.
36 / Норма  / 16:03:24 - 27.10.17 / ЗакрытьФорму / Закрыть форму. / Авто. / Выполнен / Форма закрыта.
38 / Норма  / 16:03:24 - 27.10.17 / ОткрытьФорму / Открыть форму / Авто. / Выполнен / Форма открыта.
39 / Норма  / 16:03:25 - 27.10.17 / НажатьКнопку / Нажать кнопку / Авто. / Выполнен / Кнопка нажата.
40 / Норма  / 16:03:25 - 27.10.17 / ЗакрытьФорму / Закрыть форму. / Авто. / Выполнен / Форма закрыта.
42 / Норма  / 16:03:25 - 27.10.17 / ОткрытьФорму / Открыть форму / Авто. / Выполнен / Форма открыта.
43 / Норма  / 16:03:26 - 27.10.17 / ЗаполнитьРеквизиты / Заполнить реквизиты шапки / Авто. / Выполнен / Реквизиты шапки заполнены.
44 / Норма  / 16:03:26 - 27.10.17 / НажатьКнопку / Нажать кнопку / Авто. / Выполнен / Кнопка нажата.
45 / Норма  / 16:03:26 - 27.10.17 / ЗакрытьФорму / Закрыть форму. / Авто. / Выполнен / Форма закрыта.
47 / Норма  / 16:03:26 - 27.10.17 / ОткрытьФорму / Открыть форму / Авто. / Выполнен / Форма открыта.
48 / Норма  / 16:03:27 - 27.10.17 / НажатьКнопку / Нажать кнопку / Авто. / Выполнен / Кнопка нажата.
49 / Норма  / 16:03:27 - 27.10.17 / ЗакрытьФорму / Закрыть форму. / Авто. / Выполнен / Форма закрыта.
РуководительПроизводства
27 октября 2017 г. 16:03:27 Окончание выполнения теста
Тест выполнен.
34 / Ошибка / 16:10:06 - 27.10.17 / ВыполнитьПроцедуру / Выбрать дефект в ТЧ / Авто. / Выполнен / MS_CP_COMINGOFF {(2)}: Ошибка при установке значения атрибута контекста (ТекущаяСтрока): Отсутствует ключ строки / Ошибка при установке значения атрибута контекста (ТекущаяСтрока)
15 / Ошибка / 17:21:37 - 27.10.17 / ВыполнитьПроцедуру / Выполнить процедуру / Авто. / Выполнен / MS_CP_COMINGOFF {(1)}: Поле объекта не обнаружено (Надпись1) / Поле объекта не обнаружено (Надпись1)
20 / Ошибка / 09:18:26 - 30.10.17 / ЗаполнитьРеквизиты / Заполнить реквизиты шапки / Авто. / Выполнен / Элемент формы VIN_РФ находится в состоянии "Только чтение"
20 / Норма  / 09:18:26 - 30.10.17 / ЗаполнитьРеквизиты / Заполнить реквизиты шапки / Авто. / Выполнен / Заполнение на форме "VIN_РФ" не требуется.
20 / Ошибка / 09:18:26 - 30.10.17 / ЗаполнитьРеквизиты / Заполнить реквизиты шапки / Авто. / Выполнен / Элемент формы ИдентификаторУВЭОС находится в состоянии "Только чтение"
20 / Норма  / 09:18:26 - 30.10.17 / ЗаполнитьРеквизиты / Заполнить реквизиты шапки / Авто. / Выполнен / Заполнение на форме "ИдентификаторУВЭОС" не требуется.
20 / Норма  / 09:18:26 - 30.10.17 / ЗаполнитьРеквизиты / Заполнить реквизиты шапки / Авто. / Выполнен / Реквизиты шапки заполнены.
21 / Норма  / 09:18:27 - 30.10.17 / ЗакрытьФорму / Записать элемент справочника и закрыть форму. / Авто. / Выполнен / Объект записан в форме. Форма закрыта.
22 / Норма  / 09:18:27 - 30.10.17 / ВосстановлениеОбъектовJSON / Сериализация и восстановление объектов / Авто. / Выполнен / Объекты загружены.
24 / Норма  / 09:18:27 - 30.10.17 / ОткрытьФорму / Открыть форму / Авто. / Выполнен / Форма открыта.
25 / Норма  / 09:18:27 - 30.10.17 / ВыполнитьСкрипт / сменить ШК / Авто. / Выполнен / Скрипт выполнен.
26 / Норма  / 09:18:28 - 30.10.17 / НажатьКнопку / Нажать кнопку / Авто. / Выполнен / Кнопка нажата.
27 / Норма  / 09:18:28 - 30.10.17 / ЗакрытьФорму / Закрыть форму. / Авто. / Выполнен / Форма закрыта.
29 / Норма  / 09:18:28 - 30.10.17 / ОткрытьФорму / Открыть форму / Авто. / Выполнен / Форма открыта.
30 / Норма  / 09:18:28 - 30.10.17 / ЗаполнитьРеквизиты / Заполнить реквизиты шапки / Авто. / Выполнен / Заполнение на форме "Дата" не требуется.
30 / Норма  / 09:18:28 - 30.10.17 / ЗаполнитьРеквизиты / Заполнить реквизиты шапки / Авто. / Выполнен / Реквизиты шапки заполнены.
31 / Норма  / 09:19:01 - 30.10.17 / НажатьКнопку / Нажать кнопку / Авто. / Выполнен / Кнопка нажата.
32 / Норма  / 09:19:01 - 30.10.17 / ЗакрытьФорму / Закрыть форму. / Авто. / Выполнен / Форма закрыта.
34 / Норма  / 09:19:01 - 30.10.17 / ОткрытьФорму / Открыть форму / Авто. / Выполнен / Форма открыта.
35 / Норма  / 09:19:03 - 30.10.17 / НажатьКнопку / Нажать кнопку / Авто. / Выполнен / Кнопка нажата.
36 / Норма  / 09:19:03 - 30.10.17 / ЗакрытьФорму / Закрыть форму. / Авто. / Выполнен / Форма закрыта.
38 / Норма  / 09:19:03 - 30.10.17 / ОткрытьФорму / Открыть форму / Авто. / Выполнен / Форма открыта.
39 / Норма  / 09:19:04 - 30.10.17 / НажатьКнопку / Нажать кнопку / Авто. / Выполнен / Кнопка нажата.
40 / Норма  / 09:19:04 - 30.10.17 / ЗакрытьФорму / Закрыть форму. / Авто. / Выполнен / Форма закрыта.
42 / Норма  / 09:19:04 - 30.10.17 / ОткрытьФорму / Открыть форму / Авто. / Выполнен / Форма открыта.
43 / Норма  / 09:19:05 - 30.10.17 / ЗаполнитьРеквизиты / Заполнить реквизиты шапки / Авто. / Выполнен / Реквизиты шапки заполнены.
44 / Норма  / 09:19:06 - 30.10.17 / НажатьКнопку / Нажать кнопку / Авто. / Выполнен / Кнопка нажата.
45 / Норма  / 09:19:06 - 30.10.17 / ЗакрытьФорму / Закрыть форму. / Авто. / Выполнен / Форма закрыта.
47 / Норма  / 09:19:06 - 30.10.17 / ОткрытьФорму / Открыть форму / Авто. / Выполнен / Форма открыта.
48 / Норма  / 09:19:07 - 30.10.17 / НажатьКнопку / Нажать кнопку / Авто. / Выполнен / Кнопка нажата.
49 / Норма  / 09:19:07 - 30.10.17 / ЗакрытьФорму / Закрыть форму. / Авто. / Выполнен / Форма закрыта.
РуководительПроизводства
30 октября 2017 г. 09:19:07 Окончание выполнения теста
Тест выполнен.
20 / Ошибка / 09:32:27 - 31.10.17 / ЗаполнитьРеквизиты / Заполнить реквизиты шапки / Авто. / Выполнен / Элемент формы VIN_РФ находится в состоянии "Только чтение"
20 / Норма  / 09:32:28 - 31.10.17 / ЗаполнитьРеквизиты / Заполнить реквизиты шапки / Авто. / Выполнен / Заполнение на форме "VIN_РФ" не требуется.
20 / Ошибка / 09:32:28 - 31.10.17 / ЗаполнитьРеквизиты / Заполнить реквизиты шапки / Авто. / Выполнен / Элемент формы ИдентификаторУВЭОС находится в состоянии "Только чтение"
20 / Норма  / 09:32:28 - 31.10.17 / ЗаполнитьРеквизиты / Заполнить реквизиты шапки / Авто. / Выполнен / Заполнение на форме "ИдентификаторУВЭОС" не требуется.
20 / Норма  / 09:32:28 - 31.10.17 / ЗаполнитьРеквизиты / Заполнить реквизиты шапки / Авто. / Выполнен / Реквизиты шапки заполнены.
21 / Норма  / 09:32:28 - 31.10.17 / ЗакрытьФорму / Записать элемент справочника и закрыть форму. / Авто. / Выполнен / Объект записан в форме. Форма закрыта.
22 / Норма  / 09:32:28 - 31.10.17 / ВосстановлениеОбъектовJSON / Сериализация и восстановление объектов / Авто. / Выполнен / Объекты загружены.
24 / Норма  / 09:32:28 - 31.10.17 / ОткрытьФорму / Открыть форму / Авто. / Выполнен / Форма открыта.
25 / Норма  / 09:32:29 - 31.10.17 / ВыполнитьСкрипт / сменить ШК / Авто. / Выполнен / Скрипт выполнен.
26 / Норма  / 09:32:30 - 31.10.17 / НажатьКнопку / Нажать кнопку / Авто. / Выполнен / Кнопка нажата.
27 / Норма  / 09:32:30 - 31.10.17 / ЗакрытьФорму / Закрыть форму. / Авто. / Выполнен / Форма закрыта.
29 / Норма  / 09:32:30 - 31.10.17 / ОткрытьФорму / Открыть форму / Авто. / Выполнен / Форма открыта.
30 / Норма  / 09:32:30 - 31.10.17 / ЗаполнитьРеквизиты / Заполнить реквизиты шапки / Авто. / Выполнен / Заполнение на форме "Дата" не требуется.
30 / Норма  / 09:32:30 - 31.10.17 / ЗаполнитьРеквизиты / Заполнить реквизиты шапки / Авто. / Выполнен / Реквизиты шапки заполнены.
31 / Норма  / 09:32:57 - 31.10.17 / НажатьКнопку / Нажать кнопку / Авто. / Выполнен / Кнопка нажата.
32 / Норма  / 09:32:57 - 31.10.17 / ЗакрытьФорму / Закрыть форму. / Авто. / Выполнен / Форма закрыта.
34 / Норма  / 09:32:57 - 31.10.17 / ОткрытьФорму / Открыть форму / Авто. / Выполнен / Форма открыта.
35 / Норма  / 09:32:59 - 31.10.17 / НажатьКнопку / Нажать кнопку / Авто. / Выполнен / Кнопка нажата.
36 / Норма  / 09:32:59 - 31.10.17 / ЗакрытьФорму / Закрыть форму. / Авто. / Выполнен / Форма закрыта.
38 / Норма  / 09:32:59 - 31.10.17 / ОткрытьФорму / Открыть форму / Авто. / Выполнен / Форма открыта.
39 / Норма  / 09:33:00 - 31.10.17 / НажатьКнопку / Нажать кнопку / Авто. / Выполнен / Кнопка нажата.
40 / Норма  / 09:33:00 - 31.10.17 / ЗакрытьФорму / Закрыть форму. / Авто. / Выполнен / Форма закрыта.
42 / Норма  / 09:33:00 - 31.10.17 / ОткрытьФорму / Открыть форму / Авто. / Выполнен / Форма открыта.
43 / Норма  / 09:33:00 - 31.10.17 / ЗаполнитьРеквизиты / Заполнить реквизиты шапки / Авто. / Выполнен / Реквизиты шапки заполнены.
44 / Норма  / 09:33:01 - 31.10.17 / НажатьКнопку / Нажать кнопку / Авто. / Выполнен / Кнопка нажата.
45 / Норма  / 09:33:01 - 31.10.17 / ЗакрытьФорму / Закрыть форму. / Авто. / Выполнен / Форма закрыта.
47 / Норма  / 09:33:01 - 31.10.17 / ОткрытьФорму / Открыть форму / Авто. / Выполнен / Форма открыта.
48 / Норма  / 09:33:02 - 31.10.17 / НажатьКнопку / Нажать кнопку / Авто. / Выполнен / Кнопка нажата.
49 / Норма  / 09:33:02 - 31.10.17 / ЗакрытьФорму / Закрыть форму. / Авто. / Выполнен / Форма закрыта.
РуководительПроизводства
31 октября 2017 г. 09:33:02 Окончание выполнения теста
Тест выполнен.
20 / Ошибка / 09:49:29 - 31.10.17 / ЗаполнитьРеквизиты / Заполнить реквизиты шапки / Авто. / Выполнен / Элемент формы VIN_РФ находится в состоянии "Только чтение"
20 / Норма  / 09:49:29 - 31.10.17 / ЗаполнитьРеквизиты / Заполнить реквизиты шапки / Авто. / Выполнен / Заполнение на форме "VIN_РФ" не требуется.
20 / Ошибка / 09:49:29 - 31.10.17 / ЗаполнитьРеквизиты / Заполнить реквизиты шапки / Авто. / Выполнен / Элемент формы ИдентификаторУВЭОС находится в состоянии "Только чтение"
20 / Норма  / 09:49:29 - 31.10.17 / ЗаполнитьРеквизиты / Заполнить реквизиты шапки / Авто. / Выполнен / Заполнение на форме "ИдентификаторУВЭОС" не требуется.
20 / Норма  / 09:49:29 - 31.10.17 / ЗаполнитьРеквизиты / Заполнить реквизиты шапки / Авто. / Выполнен / Реквизиты шапки заполнены.
21 / Норма  / 09:49:29 - 31.10.17 / ЗакрытьФорму / Записать элемент справочника и закрыть форму. / Авто. / Выполнен / Объект записан в форме. Форма закрыта.
22 / Норма  / 09:49:29 - 31.10.17 / ВосстановлениеОбъектовJSON / Сериализация и восстановление объектов / Авто. / Выполнен / Объекты загружены.
24 / Норма  / 09:49:29 - 31.10.17 / ОткрытьФорму / Открыть форму / Авто. / Выполнен / Форма открыта.
25 / Норма  / 09:49:30 - 31.10.17 / ВыполнитьСкрипт / сменить ШК / Авто. / Выполнен / Скрипт выполнен.
26 / Норма  / 09:49:31 - 31.10.17 / НажатьКнопку / Нажать кнопку / Авто. / Выполнен / Кнопка нажата.
27 / Норма  / 09:49:31 - 31.10.17 / ЗакрытьФорму / Закрыть форму. / Авто. / Выполнен / Форма закрыта.
29 / Норма  / 09:49:31 - 31.10.17 / ОткрытьФорму / Открыть форму / Авто. / Выполнен / Форма открыта.
30 / Норма  / 09:49:31 - 31.10.17 / ЗаполнитьРеквизиты / Заполнить реквизиты шапки / Авто. / Выполнен / Заполнение на форме "Дата" не требуется.
30 / Норма  / 09:49:31 - 31.10.17 / ЗаполнитьРеквизиты / Заполнить реквизиты шапки / Авто. / Выполнен / Реквизиты шапки заполнены.
31 / Норма  / 09:49:55 - 31.10.17 / НажатьКнопку / Нажать кнопку / Авто. / Выполнен / Кнопка нажата.
32 / Норма  / 09:49:55 - 31.10.17 / ЗакрытьФорму / Закрыть форму. / Авто. / Выполнен / Форма закрыта.
34 / Норма  / 09:49:56 - 31.10.17 / ОткрытьФорму / Открыть форму / Авто. / Выполнен / Форма открыта.
35 / Норма  / 09:49:57 - 31.10.17 / НажатьКнопку / Нажать кнопку / Авто. / Выполнен / Кнопка нажата.
36 / Норма  / 09:49:57 - 31.10.17 / ЗакрытьФорму / Закрыть форму. / Авто. / Выполнен / Форма закрыта.
38 / Норма  / 09:49:57 - 31.10.17 / ОткрытьФорму / Открыть форму / Авто. / Выполнен / Форма открыта.
39 / Норма  / 09:49:58 - 31.10.17 / НажатьКнопку / Нажать кнопку / Авто. / Выполнен / Кнопка нажата.
40 / Норма  / 09:49:58 - 31.10.17 / ЗакрытьФорму / Закрыть форму. / Авто. / Выполнен / Форма закрыта.
42 / Норма  / 09:49:58 - 31.10.17 / ОткрытьФорму / Открыть форму / Авто. / Выполнен / Форма открыта.
43 / Норма  / 09:49:59 - 31.10.17 / ЗаполнитьРеквизиты / Заполнить реквизиты шапки / Авто. / Выполнен / Реквизиты шапки заполнены.
44 / Норма  / 09:50:00 - 31.10.17 / НажатьКнопку / Нажать кнопку / Авто. / Выполнен / Кнопка нажата.
45 / Норма  / 09:50:00 - 31.10.17 / ЗакрытьФорму / Закрыть форму. / Авто. / Выполнен / Форма закрыта.
47 / Норма  / 09:50:00 - 31.10.17 / ОткрытьФорму / Открыть форму / Авто. / Выполнен / Форма открыта.
48 / Норма  / 09:50:01 - 31.10.17 / НажатьКнопку / Нажать кнопку / Авто. / Выполнен / Кнопка нажата.
49 / Норма  / 09:50:01 - 31.10.17 / ЗакрытьФорму / Закрыть форму. / Авто. / Выполнен / Форма закрыта.
РуководительПроизводства
31 октября 2017 г. 09:50:01 Окончание выполнения теста
Тест выполнен.
20 / Ошибка / 09:54:27 - 31.10.17 / ЗаполнитьРеквизиты / Заполнить реквизиты шапки / Авто. / Выполнен / Элемент формы VIN_РФ находится в состоянии "Только чтение"
20 / Норма  / 09:54:27 - 31.10.17 / ЗаполнитьРеквизиты / Заполнить реквизиты шапки / Авто. / Выполнен / Заполнение на форме "VIN_РФ" не требуется.
20 / Ошибка / 09:54:27 - 31.10.17 / ЗаполнитьРеквизиты / Заполнить реквизиты шапки / Авто. / Выполнен / Элемент формы ИдентификаторУВЭОС находится в состоянии "Только чтение"
20 / Норма  / 09:54:27 - 31.10.17 / ЗаполнитьРеквизиты / Заполнить реквизиты шапки / Авто. / Выполнен / Заполнение на форме "ИдентификаторУВЭОС" не требуется.
20 / Норма  / 09:54:27 - 31.10.17 / ЗаполнитьРеквизиты / Заполнить реквизиты шапки / Авто. / Выполнен / Реквизиты шапки заполнены.
21 / Норма  / 09:54:27 - 31.10.17 / ЗакрытьФорму / Записать элемент справочника и закрыть форму. / Авто. / Выполнен / Объект записан в форме. Форма закрыта.
22 / Норма  / 09:54:27 - 31.10.17 / ВосстановлениеОбъектовJSON / Сериализация и восстановление объектов / Авто. / Выполнен / Объекты загружены.
24 / Норма  / 09:54:27 - 31.10.17 / ОткрытьФорму / Открыть форму / Авто. / Выполнен / Форма открыта.
25 / Норма  / 09:54:27 - 31.10.17 / ВыполнитьСкрипт / сменить ШК / Авто. / Выполнен / Скрипт выполнен.
26 / Норма  / 09:54:28 - 31.10.17 / НажатьКнопку / Нажать кнопку / Авто. / Выполнен / Кнопка нажата.
27 / Норма  / 09:54:28 - 31.10.17 / ЗакрытьФорму / Закрыть форму. / Авто. / Выполнен / Форма закрыта.
29 / Норма  / 09:54:28 - 31.10.17 / ОткрытьФорму / Открыть форму / Авто. / Выполнен / Форма открыта.
30 / Норма  / 09:54:28 - 31.10.17 / ЗаполнитьРеквизиты / Заполнить реквизиты шапки / Авто. / Выполнен / Заполнение на форме "Дата" не требуется.
30 / Норма  / 09:54:28 - 31.10.17 / ЗаполнитьРеквизиты / Заполнить реквизиты шапки / Авто. / Выполнен / Реквизиты шапки заполнены.
31 / Норма  / 09:54:56 - 31.10.17 / НажатьКнопку / Нажать кнопку / Авто. / Выполнен / Кнопка нажата.
32 / Норма  / 09:54:56 - 31.10.17 / ЗакрытьФорму / Закрыть форму. / Авто. / Выполнен / Форма закрыта.
34 / Норма  / 09:54:56 - 31.10.17 / ОткрытьФорму / Открыть форму / Авто. / Выполнен / Форма открыта.
35 / Норма  / 09:54:58 - 31.10.17 / НажатьКнопку / Нажать кнопку / Авто. / Выполнен / Кнопка нажата.
36 / Норма  / 09:54:58 - 31.10.17 / ЗакрытьФорму / Закрыть форму. / Авто. / Выполнен / Форма закрыта.
38 / Норма  / 09:54:58 - 31.10.17 / ОткрытьФорму / Открыть форму / Авто. / Выполнен / Форма открыта.
39 / Норма  / 09:54:59 - 31.10.17 / НажатьКнопку / Нажать кнопку / Авто. / Выполнен / Кнопка нажата.
40 / Норма  / 09:54:59 - 31.10.17 / ЗакрытьФорму / Закрыть форму. / Авто. / Выполнен / Форма закрыта.
42 / Норма  / 09:54:59 - 31.10.17 / ОткрытьФорму / Открыть форму / Авто. / Выполнен / Форма открыта.
43 / Норма  / 09:55:00 - 31.10.17 / ЗаполнитьРеквизиты / Заполнить реквизиты шапки / Авто. / Выполнен / Реквизиты шапки заполнены.
44 / Норма  / 09:55:01 - 31.10.17 / НажатьКнопку / Нажать кнопку / Авто. / Выполнен / Кнопка нажата.
45 / Норма  / 09:55:01 - 31.10.17 / ЗакрытьФорму / Закрыть форму. / Авто. / Выполнен / Форма закрыта.
47 / Норма  / 09:55:01 - 31.10.17 / ОткрытьФорму / Открыть форму / Авто. / Выполнен / Форма открыта.
48 / Норма  / 09:55:02 - 31.10.17 / НажатьКнопку / Нажать кнопку / Авто. / Выполнен / Кнопка нажата.
49 / Норма  / 09:55:02 - 31.10.17 / ЗакрытьФорму / Закрыть форму. / Авто. / Выполнен / Форма закрыта.
РуководительПроизводства
31 октября 2017 г. 09:55:02 Окончание выполнения теста
Тест выполнен.
20 / Ошибка / 10:16:49 - 31.10.17 / ЗаполнитьРеквизиты / Заполнить реквизиты шапки / Авто. / Выполнен / Элемент формы VIN_РФ находится в состоянии "Только чтение"
20 / Норма  / 10:16:49 - 31.10.17 / ЗаполнитьРеквизиты / Заполнить реквизиты шапки / Авто. / Выполнен / Заполнение на форме "VIN_РФ" не требуется.
20 / Ошибка / 10:16:49 - 31.10.17 / ЗаполнитьРеквизиты / Заполнить реквизиты шапки / Авто. / Выполнен / Элемент формы ИдентификаторУВЭОС находится в состоянии "Только чтение"
20 / Норма  / 10:16:49 - 31.10.17 / ЗаполнитьРеквизиты / Заполнить реквизиты шапки / Авто. / Выполнен / Заполнение на форме "ИдентификаторУВЭОС" не требуется.
20 / Норма  / 10:16:49 - 31.10.17 / ЗаполнитьРеквизиты / Заполнить реквизиты шапки / Авто. / Выполнен / Реквизиты шапки заполнены.
21 / Норма  / 10:16:49 - 31.10.17 / ЗакрытьФорму / Записать элемент справочника и закрыть форму. / Авто. / Выполнен / Объект записан в форме. Форма закрыта.
22 / Норма  / 10:16:49 - 31.10.17 / ВосстановлениеОбъектовJSON / Сериализация и восстановление объектов / Авто. / Выполнен / Объекты загружены.
24 / Норма  / 10:16:49 - 31.10.17 / ОткрытьФорму / Открыть форму / Авто. / Выполнен / Форма открыта.
25 / Норма  / 10:16:50 - 31.10.17 / ВыполнитьСкрипт / сменить ШК / Авто. / Выполнен / Скрипт выполнен.
26 / Норма  / 10:16:51 - 31.10.17 / НажатьКнопку / Нажать кнопку / Авто. / Выполнен / Кнопка нажата.
27 / Норма  / 10:16:51 - 31.10.17 / ЗакрытьФорму / Закрыть форму. / Авто. / Выполнен / Форма закрыта.
29 / Норма  / 10:16:51 - 31.10.17 / ОткрытьФорму / Открыть форму / Авто. / Выполнен / Форма открыта.
30 / Норма  / 10:16:51 - 31.10.17 / ЗаполнитьРеквизиты / Заполнить реквизиты шапки / Авто. / Выполнен / Заполнение на форме "Дата" не требуется.
30 / Норма  / 10:16:51 - 31.10.17 / ЗаполнитьРеквизиты / Заполнить реквизиты шапки / Авто. / Выполнен / Реквизиты шапки заполнены.
31 / Норма  / 10:17:17 - 31.10.17 / НажатьКнопку / Нажать кнопку / Авто. / Выполнен / Кнопка нажата.
32 / Норма  / 10:17:17 - 31.10.17 / ЗакрытьФорму / Закрыть форму. / Авто. / Выполнен / Форма закрыта.
34 / Норма  / 10:17:18 - 31.10.17 / ОткрытьФорму / Открыть форму / Авто. / Выполнен / Форма открыта.
35 / Норма  / 10:17:19 - 31.10.17 / НажатьКнопку / Нажать кнопку / Авто. / Выполнен / Кнопка нажата.
36 / Норма  / 10:17:20 - 31.10.17 / ЗакрытьФорму / Закрыть форму. / Авто. / Выполнен / Форма закрыта.
38 / Норма  / 10:17:20 - 31.10.17 / ОткрытьФорму / Открыть форму / Авто. / Выполнен / Форма открыта.
39 / Норма  / 10:17:21 - 31.10.17 / НажатьКнопку / Нажать кнопку / Авто. / Выполнен / Кнопка нажата.
40 / Норма  / 10:17:21 - 31.10.17 / ЗакрытьФорму / Закрыть форму. / Авто. / Выполнен / Форма закрыта.
42 / Норма  / 10:17:21 - 31.10.17 / ОткрытьФорму / Открыть форму / Авто. / Выполнен / Форма открыта.
43 / Норма  / 10:17:21 - 31.10.17 / ЗаполнитьРеквизиты / Заполнить реквизиты шапки / Авто. / Выполнен / Реквизиты шапки заполнены.
44 / Норма  / 10:17:22 - 31.10.17 / НажатьКнопку / Нажать кнопку / Авто. / Выполнен / Кнопка нажата.
45 / Норма  / 10:17:22 - 31.10.17 / ЗакрытьФорму / Закрыть форму. / Авто. / Выполнен / Форма закрыта.
47 / Норма  / 10:17:22 - 31.10.17 / ОткрытьФорму / Открыть форму / Авто. / Выполнен / Форма открыта.
48 / Норма  / 10:17:23 - 31.10.17 / НажатьКнопку / Нажать кнопку / Авто. / Выполнен / Кнопка нажата.
49 / Норма  / 10:17:23 - 31.10.17 / ЗакрытьФорму / Закрыть форму. / Авто. / Выполнен / Форма закрыта.
РуководительПроизводства
31 октября 2017 г. 10:17:23 Окончание выполнения теста
Тест выполнен.
15 / Ошибка / 12:33:21 - 31.10.17 / ВыполнитьПроцедуру / Выполнить процедуру / Авто. / Выполнен / MS_CP_COMINGOFF {(4)}: автомобиль не должен быть зарегестрирован в базе / автомобиль не должен быть зарегестрирован в базе
20 / Ошибка / 12:58:18 - 31.10.17 / ЗаполнитьРеквизиты / Заполнить реквизиты шапки / Авто. / Выполнен / Элемент формы VIN_РФ находится в состоянии "Только чтение"
20 / Норма  / 12:58:18 - 31.10.17 / ЗаполнитьРеквизиты / Заполнить реквизиты шапки / Авто. / Выполнен / Заполнение на форме "VIN_РФ" не требуется.
20 / Ошибка / 12:58:18 - 31.10.17 / ЗаполнитьРеквизиты / Заполнить реквизиты шапки / Авто. / Выполнен / Элемент формы ИдентификаторУВЭОС находится в состоянии "Только чтение"
20 / Норма  / 12:58:18 - 31.10.17 / ЗаполнитьРеквизиты / Заполнить реквизиты шапки / Авто. / Выполнен / Заполнение на форме "ИдентификаторУВЭОС" не требуется.
20 / Норма  / 12:58:18 - 31.10.17 / ЗаполнитьРеквизиты / Заполнить реквизиты шапки / Авто. / Выполнен / Реквизиты шапки заполнены.
21 / Норма  / 12:58:19 - 31.10.17 / ЗакрытьФорму / Записать элемент справочника и закрыть форму. / Авто. / Выполнен / Объект записан в форме. Форма закрыта.
22 / Норма  / 12:58:19 - 31.10.17 / ВосстановлениеОбъектовJSON / Сериализация и восстановление объектов / Авто. / Выполнен / Объекты загружены.
24 / Норма  / 12:58:19 - 31.10.17 / ОткрытьФорму / Открыть форму / Авто. / Выполнен / Форма открыта.
25 / Норма  / 12:58:20 - 31.10.17 / ВыполнитьСкрипт / сменить ШК / Авто. / Выполнен / Скрипт выполнен.
26 / Норма  / 12:58:20 - 31.10.17 / НажатьКнопку / Нажать кнопку / Авто. / Выполнен / Кнопка нажата.
27 / Норма  / 12:58:20 - 31.10.17 / ЗакрытьФорму / Закрыть форму. / Авто. / Выполнен / Форма закрыта.
29 / Норма  / 12:58:20 - 31.10.17 / ОткрытьФорму / Открыть форму / Авто. / Выполнен / Форма открыта.
30 / Норма  / 12:58:20 - 31.10.17 / ЗаполнитьРеквизиты / Заполнить реквизиты шапки / Авто. / Выполнен / Заполнение на форме "Дата" не требуется.
30 / Норма  / 12:58:20 - 31.10.17 / ЗаполнитьРеквизиты / Заполнить реквизиты шапки / Авто. / Выполнен / Реквизиты шапки заполнены.
31 / Норма  / 12:58:48 - 31.10.17 / НажатьКнопку / Нажать кнопку / Авто. / Выполнен / Кнопка нажата.
32 / Норма  / 12:58:48 - 31.10.17 / ЗакрытьФорму / Закрыть форму. / Авто. / Выполнен / Форма закрыта.
34 / Норма  / 12:58:48 - 31.10.17 / ОткрытьФорму / Открыть форму / Авто. / Выполнен / Форма открыта.
35 / Норма  / 12:58:49 - 31.10.17 / НажатьКнопку / Нажать кнопку / Авто. / Выполнен / Кнопка нажата.
36 / Норма  / 12:58:50 - 31.10.17 / ЗакрытьФорму / Закрыть форму. / Авто. / Выполнен / Форма закрыта.
38 / Норма  / 12:58:50 - 31.10.17 / ОткрытьФорму / Открыть форму / Авто. / Выполнен / Форма открыта.
39 / Норма  / 12:58:50 - 31.10.17 / НажатьКнопку / Нажать кнопку / Авто. / Выполнен / Кнопка нажата.
40 / Норма  / 12:58:50 - 31.10.17 / ЗакрытьФорму / Закрыть форму. / Авто. / Выполнен / Форма закрыта.
42 / Норма  / 12:58:50 - 31.10.17 / ОткрытьФорму / Открыть форму / Авто. / Выполнен / Форма открыта.
43 / Норма  / 12:58:51 - 31.10.17 / ЗаполнитьРеквизиты / Заполнить реквизиты шапки / Авто. / Выполнен / Реквизиты шапки заполнены.
44 / Норма  / 12:58:52 - 31.10.17 / НажатьКнопку / Нажать кнопку / Авто. / Выполнен / Кнопка нажата.
45 / Норма  / 12:58:52 - 31.10.17 / ЗакрытьФорму / Закрыть форму. / Авто. / Выполнен / Форма закрыта.
47 / Норма  / 12:58:52 - 31.10.17 / ОткрытьФорму / Открыть форму / Авто. / Выполнен / Форма открыта.
48 / Норма  / 12:58:53 - 31.10.17 / НажатьКнопку / Нажать кнопку / Авто. / Выполнен / Кнопка нажата.
49 / Норма  / 12:58:53 - 31.10.17 / ЗакрытьФорму / Закрыть форму. / Авто. / Выполнен / Форма закрыта.
РуководительПроизводства
31 октября 2017 г. 12:58:53 Окончание выполнения теста
Тест выполнен.
20 / Ошибка / 14:17:12 - 31.10.17 / ЗаполнитьРеквизиты / Заполнить реквизиты шапки / Авто. / Выполнен / Элемент формы VIN_РФ находится в состоянии "Только чтение"
20 / Норма  / 14:17:12 - 31.10.17 / ЗаполнитьРеквизиты / Заполнить реквизиты шапки / Авто. / Выполнен / Заполнение на форме "VIN_РФ" не требуется.
20 / Ошибка / 14:17:12 - 31.10.17 / ЗаполнитьРеквизиты / Заполнить реквизиты шапки / Авто. / Выполнен / Элемент формы ИдентификаторУВЭОС находится в состоянии "Только чтение"
20 / Норма  / 14:17:12 - 31.10.17 / ЗаполнитьРеквизиты / Заполнить реквизиты шапки / Авто. / Выполнен / Заполнение на форме "ИдентификаторУВЭОС" не требуется.
20 / Норма  / 14:17:12 - 31.10.17 / ЗаполнитьРеквизиты / Заполнить реквизиты шапки / Авто. / Выполнен / Реквизиты шапки заполнены.
21 / Норма  / 14:17:12 - 31.10.17 / ЗакрытьФорму / Записать элемент справочника и закрыть форму. / Авто. / Выполнен / Объект записан в форме. Форма закрыта.
22 / Норма  / 14:17:12 - 31.10.17 / ВосстановлениеОбъектовJSON / Сериализация и восстановление объектов / Авто. / Выполнен / Объекты загружены.
24 / Норма  / 14:17:12 - 31.10.17 / ОткрытьФорму / Открыть форму / Авто. / Выполнен / Форма открыта.
25 / Норма  / 14:17:12 - 31.10.17 / ВыполнитьСкрипт / сменить ШК / Авто. / Выполнен / Скрипт выполнен.
26 / Норма  / 14:17:13 - 31.10.17 / НажатьКнопку / Нажать кнопку / Авто. / Выполнен / Кнопка нажата.
27 / Норма  / 14:17:13 - 31.10.17 / ЗакрытьФорму / Закрыть форму. / Авто. / Выполнен / Форма закрыта.
29 / Норма  / 14:17:13 - 31.10.17 / ОткрытьФорму / Открыть форму / Авто. / Выполнен / Форма открыта.
30 / Норма  / 14:17:13 - 31.10.17 / ЗаполнитьРеквизиты / Заполнить реквизиты шапки / Авто. / Выполнен / Заполнение на форме "Дата" не требуется.
30 / Норма  / 14:17:13 - 31.10.17 / ЗаполнитьРеквизиты / Заполнить реквизиты шапки / Авто. / Выполнен / Реквизиты шапки заполнены.
31 / Норма  / 14:17:41 - 31.10.17 / НажатьКнопку / Нажать кнопку / Авто. / Выполнен / Кнопка нажата.
32 / Норма  / 14:17:41 - 31.10.17 / ЗакрытьФорму / Закрыть форму. / Авто. / Выполнен / Форма закрыта.
34 / Норма  / 14:17:41 - 31.10.17 / ОткрытьФорму / Открыть форму / Авто. / Выполнен / Форма открыта.
35 / Норма  / 14:17:42 - 31.10.17 / НажатьКнопку / Нажать кнопку / Авто. / Выполнен / Кнопка нажата.
36 / Норма  / 14:17:43 - 31.10.17 / ЗакрытьФорму / Закрыть форму. / Авто. / Выполнен / Форма закрыта.
38 / Норма  / 14:17:43 - 31.10.17 / ОткрытьФорму / Открыть форму / Авто. / Выполнен / Форма открыта.
39 / Норма  / 14:17:44 - 31.10.17 / НажатьКнопку / Нажать кнопку / Авто. / Выполнен / Кнопка нажата.
40 / Норма  / 14:17:44 - 31.10.17 / ЗакрытьФорму / Закрыть форму. / Авто. / Выполнен / Форма закрыта.
42 / Норма  / 14:17:44 - 31.10.17 / ОткрытьФорму / Открыть форму / Авто. / Выполнен / Форма открыта.
43 / Норма  / 14:17:44 - 31.10.17 / ЗаполнитьРеквизиты / Заполнить реквизиты шапки / Авто. / Выполнен / Реквизиты шапки заполнены.
44 / Норма  / 14:17:45 - 31.10.17 / НажатьКнопку / Нажать кнопку / Авто. / Выполнен / Кнопка нажата.
45 / Норма  / 14:17:45 - 31.10.17 / ЗакрытьФорму / Закрыть форму. / Авто. / Выполнен / Форма закрыта.
47 / Норма  / 14:17:45 - 31.10.17 / ОткрытьФорму / Открыть форму / Авто. / Выполнен / Форма открыта.
48 / Норма  / 14:17:46 - 31.10.17 / НажатьКнопку / Нажать кнопку / Авто. / Выполнен / Кнопка нажата.
49 / Норма  / 14:17:46 - 31.10.17 / ЗакрытьФорму / Закрыть форму. / Авто. / Выполнен / Форма закрыта.
РуководительПроизводства
31 октября 2017 г. 14:17:46 Окончание выполнения теста
Тест выполнен.
20 / Ошибка / 17:07:53 - 31.10.17 / ЗаполнитьРеквизиты / Заполнить реквизиты шапки / Авто. / Выполнен / Элемент формы VIN_РФ находится в состоянии "Только чтение"
20 / Норма  / 17:07:53 - 31.10.17 / ЗаполнитьРеквизиты / Заполнить реквизиты шапки / Авто. / Выполнен / Заполнение на форме "VIN_РФ" не требуется.
20 / Ошибка / 17:07:53 - 31.10.17 / ЗаполнитьРеквизиты / Заполнить реквизиты шапки / Авто. / Выполнен / Элемент формы ИдентификаторУВЭОС находится в состоянии "Только чтение"
20 / Норма  / 17:07:53 - 31.10.17 / ЗаполнитьРеквизиты / Заполнить реквизиты шапки / Авто. / Выполнен / Заполнение на форме "ИдентификаторУВЭОС" не требуется.
20 / Норма  / 17:07:53 - 31.10.17 / ЗаполнитьРеквизиты / Заполнить реквизиты шапки / Авто. / Выполнен / Реквизиты шапки заполнены.
21 / Норма  / 17:07:54 - 31.10.17 / ЗакрытьФорму / Записать элемент справочника и закрыть форму. / Авто. / Выполнен / Объект записан в форме. Форма закрыта.
22 / Норма  / 17:07:54 - 31.10.17 / ВосстановлениеОбъектовJSON / Сериализация и восстановление объектов / Авто. / Выполнен / Объекты загружены.
24 / Норма  / 17:07:54 - 31.10.17 / ОткрытьФорму / Открыть форму / Авто. / Выполнен / Форма открыта.
25 / Норма  / 17:07:54 - 31.10.17 / ВыполнитьСкрипт / сменить ШК / Авто. / Выполнен / Скрипт выполнен.
26 / Норма  / 17:07:55 - 31.10.17 / НажатьКнопку / Нажать кнопку / Авто. / Выполнен / Кнопка нажата.
27 / Норма  / 17:07:55 - 31.10.17 / ЗакрытьФорму / Закрыть форму. / Авто. / Выполнен / Форма закрыта.
29 / Норма  / 17:07:55 - 31.10.17 / ОткрытьФорму / Открыть форму / Авто. / Выполнен / Форма открыта.
30 / Норма  / 17:07:55 - 31.10.17 / ЗаполнитьРеквизиты / Заполнить реквизиты шапки / Авто. / Выполнен / Заполнение на форме "Дата" не требуется.
30 / Норма  / 17:07:55 - 31.10.17 / ЗаполнитьРеквизиты / Заполнить реквизиты шапки / Авто. / Выполнен / Реквизиты шапки заполнены.
31 / Норма  / 17:08:22 - 31.10.17 / НажатьКнопку / Нажать кнопку / Авто. / Выполнен / Кнопка нажата.
32 / Норма  / 17:08:22 - 31.10.17 / ЗакрытьФорму / Закрыть форму. / Авто. / Выполнен / Форма закрыта.
34 / Норма  / 17:08:23 - 31.10.17 / ОткрытьФорму / Открыть форму / Авто. / Выполнен / Форма открыта.
35 / Норма  / 17:08:24 - 31.10.17 / НажатьКнопку / Нажать кнопку / Авто. / Выполнен / Кнопка нажата.
36 / Норма  / 17:08:24 - 31.10.17 / ЗакрытьФорму / Закрыть форму. / Авто. / Выполнен / Форма закрыта.
38 / Норма  / 17:08:24 - 31.10.17 / ОткрытьФорму / Открыть форму / Авто. / Выполнен / Форма открыта.
39 / Норма  / 17:08:25 - 31.10.17 / НажатьКнопку / Нажать кнопку / Авто. / Выполнен / Кнопка нажата.
40 / Норма  / 17:08:25 - 31.10.17 / ЗакрытьФорму / Закрыть форму. / Авто. / Выполнен / Форма закрыта.
42 / Норма  / 17:08:25 - 31.10.17 / ОткрытьФорму / Открыть форму / Авто. / Выполнен / Форма открыта.
43 / Норма  / 17:08:26 - 31.10.17 / ЗаполнитьРеквизиты / Заполнить реквизиты шапки / Авто. / Выполнен / Реквизиты шапки заполнены.
44 / Норма  / 17:08:27 - 31.10.17 / НажатьКнопку / Нажать кнопку / Авто. / Выполнен / Кнопка нажата.
45 / Норма  / 17:08:27 - 31.10.17 / ЗакрытьФорму / Закрыть форму. / Авто. / Выполнен / Форма закрыта.
47 / Норма  / 17:08:27 - 31.10.17 / ОткрытьФорму / Открыть форму / Авто. / Выполнен / Форма открыта.
48 / Норма  / 17:08:28 - 31.10.17 / НажатьКнопку / Нажать кнопку / Авто. / Выполнен / Кнопка нажата.
49 / Норма  / 17:08:28 - 31.10.17 / ЗакрытьФорму / Закрыть форму. / Авто. / Выполнен / Форма закрыта.
РуководительПроизводства
31 октября 2017 г. 17:08:28 Окончание выполнения теста
Тест выполнен.
20 / Ошибка / 17:32:21 - 31.10.17 / ЗаполнитьРеквизиты / Заполнить реквизиты шапки / Авто. / Выполнен / Элемент формы VIN_РФ находится в состоянии "Только чтение"
20 / Норма  / 17:32:21 - 31.10.17 / ЗаполнитьРеквизиты / Заполнить реквизиты шапки / Авто. / Выполнен / Заполнение на форме "VIN_РФ" не требуется.
20 / Ошибка / 17:32:21 - 31.10.17 / ЗаполнитьРеквизиты / Заполнить реквизиты шапки / Авто. / Выполнен / Элемент формы ИдентификаторУВЭОС находится в состоянии "Только чтение"
20 / Норма  / 17:32:21 - 31.10.17 / ЗаполнитьРеквизиты / Заполнить реквизиты шапки / Авто. / Выполнен / Заполнение на форме "ИдентификаторУВЭОС" не требуется.
20 / Норма  / 17:32:21 - 31.10.17 / ЗаполнитьРеквизиты / Заполнить реквизиты шапки / Авто. / Выполнен / Реквизиты шапки заполнены.
21 / Норма  / 17:32:21 - 31.10.17 / ЗакрытьФорму / Записать элемент справочника и закрыть форму. / Авто. / Выполнен / Объект записан в форме. Форма закрыта.
22 / Норма  / 17:32:22 - 31.10.17 / ВосстановлениеОбъектовJSON / Сериализация и восстановление объектов / Авто. / Выполнен / Объекты загружены.
24 / Норма  / 17:32:22 - 31.10.17 / ОткрытьФорму / Открыть форму / Авто. / Выполнен / Форма открыта.
25 / Норма  / 17:32:22 - 31.10.17 / ВыполнитьСкрипт / сменить ШК / Авто. / Выполнен / Скрипт выполнен.
26 / Норма  / 17:32:23 - 31.10.17 / НажатьКнопку / Нажать кнопку / Авто. / Выполнен / Кнопка нажата.
27 / Норма  / 17:32:23 - 31.10.17 / ЗакрытьФорму / Закрыть форму. / Авто. / Выполнен / Форма закрыта.
29 / Норма  / 17:32:23 - 31.10.17 / ОткрытьФорму / Открыть форму / Авто. / Выполнен / Форма открыта.
30 / Норма  / 17:32:23 - 31.10.17 / ЗаполнитьРеквизиты / Заполнить реквизиты шапки / Авто. / Выполнен / Заполнение на форме "Дата" не требуется.
30 / Норма  / 17:32:23 - 31.10.17 / ЗаполнитьРеквизиты / Заполнить реквизиты шапки / Авто. / Выполнен / Реквизиты шапки заполнены.
31 / Норма  / 17:32:49 - 31.10.17 / НажатьКнопку / Нажать кнопку / Авто. / Выполнен / Кнопка нажата.
32 / Норма  / 17:32:49 - 31.10.17 / ЗакрытьФорму / Закрыть форму. / Авто. / Выполнен / Форма закрыта.
34 / Норма  / 17:32:50 - 31.10.17 / ОткрытьФорму / Открыть форму / Авто. / Выполнен / Форма открыта.
35 / Норма  / 17:32:51 - 31.10.17 / НажатьКнопку / Нажать кнопку / Авто. / Выполнен / Кнопка нажата.
36 / Норма  / 17:32:51 - 31.10.17 / ЗакрытьФорму / Закрыть форму. / Авто. / Выполнен / Форма закрыта.
38 / Норма  / 17:32:51 - 31.10.17 / ОткрытьФорму / Открыть форму / Авто. / Выполнен / Форма открыта.
39 / Норма  / 17:32:53 - 31.10.17 / НажатьКнопку / Нажать кнопку / Авто. / Выполнен / Кнопка нажата.
40 / Норма  / 17:32:53 - 31.10.17 / ЗакрытьФорму / Закрыть форму. / Авто. / Выполнен / Форма закрыта.
42 / Норма  / 17:32:53 - 31.10.17 / ОткрытьФорму / Открыть форму / Авто. / Выполнен / Форма открыта.
43 / Норма  / 17:32:53 - 31.10.17 / ЗаполнитьРеквизиты / Заполнить реквизиты шапки / Авто. / Выполнен / Реквизиты шапки заполнены.
44 / Норма  / 17:32:54 - 31.10.17 / НажатьКнопку / Нажать кнопку / Авто. / Выполнен / Кнопка нажата.
45 / Норма  / 17:32:54 - 31.10.17 / ЗакрытьФорму / Закрыть форму. / Авто. / Выполнен / Форма закрыта.
47 / Норма  / 17:32:54 - 31.10.17 / ОткрытьФорму / Открыть форму / Авто. / Выполнен / Форма открыта.
48 / Норма  / 17:32:55 - 31.10.17 / НажатьКнопку / Нажать кнопку / Авто. / Выполнен / Кнопка нажата.
49 / Норма  / 17:32:55 - 31.10.17 / ЗакрытьФорму / Закрыть форму. / Авто. / Выполнен / Форма закрыта.
РуководительПроизводства
31 октября 2017 г. 17:32:55 Окончание выполнения теста
Тест выполнен.
20 / Ошибка / 08:32:10 - 01.11.17 / ЗаполнитьРеквизиты / Заполнить реквизиты шапки / Авто. / Выполнен / Элемент формы VIN_РФ находится в состоянии "Только чтение"
20 / Норма  / 08:32:10 - 01.11.17 / ЗаполнитьРеквизиты / Заполнить реквизиты шапки / Авто. / Выполнен / Заполнение на форме "VIN_РФ" не требуется.
20 / Ошибка / 08:32:10 - 01.11.17 / ЗаполнитьРеквизиты / Заполнить реквизиты шапки / Авто. / Выполнен / Элемент формы ИдентификаторУВЭОС находится в состоянии "Только чтение"
20 / Норма  / 08:32:10 - 01.11.17 / ЗаполнитьРеквизиты / Заполнить реквизиты шапки / Авто. / Выполнен / Заполнение на форме "ИдентификаторУВЭОС" не требуется.
20 / Норма  / 08:32:10 - 01.11.17 / ЗаполнитьРеквизиты / Заполнить реквизиты шапки / Авто. / Выполнен / Реквизиты шапки заполнены.
21 / Норма  / 08:32:10 - 01.11.17 / ЗакрытьФорму / Записать элемент справочника и закрыть форму. / Авто. / Выполнен / Объект записан в форме. Форма закрыта.
22 / Норма  / 08:32:10 - 01.11.17 / ВосстановлениеОбъектовJSON / Сериализация и восстановление объектов / Авто. / Выполнен / Объекты загружены.
24 / Норма  / 08:32:10 - 01.11.17 / ОткрытьФорму / Открыть форму / Авто. / Выполнен / Форма открыта.
25 / Норма  / 08:32:11 - 01.11.17 / ВыполнитьСкрипт / сменить ШК / Авто. / Выполнен / Скрипт выполнен.
26 / Норма  / 08:32:12 - 01.11.17 / НажатьКнопку / Нажать кнопку / Авто. / Выполнен / Кнопка нажата.
27 / Норма  / 08:32:12 - 01.11.17 / ЗакрытьФорму / Закрыть форму. / Авто. / Выполнен / Форма закрыта.
29 / Норма  / 08:32:12 - 01.11.17 / ОткрытьФорму / Открыть форму / Авто. / Выполнен / Форма открыта.
30 / Норма  / 08:32:12 - 01.11.17 / ЗаполнитьРеквизиты / Заполнить реквизиты шапки / Авто. / Выполнен / Заполнение на форме "Дата" не требуется.
30 / Норма  / 08:32:12 - 01.11.17 / ЗаполнитьРеквизиты / Заполнить реквизиты шапки / Авто. / Выполнен / Реквизиты шапки заполнены.
31 / Норма  / 08:32:40 - 01.11.17 / НажатьКнопку / Нажать кнопку / Авто. / Выполнен / Кнопка нажата.
32 / Норма  / 08:32:40 - 01.11.17 / ЗакрытьФорму / Закрыть форму. / Авто. / Выполнен / Форма закрыта.
34 / Норма  / 08:32:40 - 01.11.17 / ОткрытьФорму / Открыть форму / Авто. / Выполнен / Форма открыта.
35 / Норма  / 08:32:42 - 01.11.17 / НажатьКнопку / Нажать кнопку / Авто. / Выполнен / Кнопка нажата.
36 / Норма  / 08:32:42 - 01.11.17 / ЗакрытьФорму / Закрыть форму. / Авто. / Выполнен / Форма закрыта.
38 / Норма  / 08:32:42 - 01.11.17 / ОткрытьФорму / Открыть форму / Авто. / Выполнен / Форма открыта.
39 / Норма  / 08:32:43 - 01.11.17 / НажатьКнопку / Нажать кнопку / Авто. / Выполнен / Кнопка нажата.
40 / Норма  / 08:32:43 - 01.11.17 / ЗакрытьФорму / Закрыть форму. / Авто. / Выполнен / Форма закрыта.
42 / Норма  / 08:32:43 - 01.11.17 / ОткрытьФорму / Открыть форму / Авто. / Выполнен / Форма открыта.
43 / Норма  / 08:32:44 - 01.11.17 / ЗаполнитьРеквизиты / Заполнить реквизиты шапки / Авто. / Выполнен / Реквизиты шапки заполнены.
44 / Норма  / 08:32:44 - 01.11.17 / НажатьКнопку / Нажать кнопку / Авто. / Выполнен / Кнопка нажата.
45 / Норма  / 08:32:45 - 01.11.17 / ЗакрытьФорму / Закрыть форму. / Авто. / Выполнен / Форма закрыта.
РуководительПроизводства
01 ноября 2017 г. 08:32:45 Окончание выполнения теста
Тест выполнен.
20 / Ошибка / 08:47:24 - 01.11.17 / ЗаполнитьРеквизиты / Заполнить реквизиты шапки / Авто. / Выполнен / Элемент формы VIN_РФ находится в состоянии "Только чтение"
20 / Норма  / 08:47:24 - 01.11.17 / ЗаполнитьРеквизиты / Заполнить реквизиты шапки / Авто. / Выполнен / Заполнение на форме "VIN_РФ" не требуется.
20 / Ошибка / 08:47:24 - 01.11.17 / ЗаполнитьРеквизиты / Заполнить реквизиты шапки / Авто. / Выполнен / Элемент формы ИдентификаторУВЭОС находится в состоянии "Только чтение"
20 / Норма  / 08:47:24 - 01.11.17 / ЗаполнитьРеквизиты / Заполнить реквизиты шапки / Авто. / Выполнен / Заполнение на форме "ИдентификаторУВЭОС" не требуется.
20 / Норма  / 08:47:24 - 01.11.17 / ЗаполнитьРеквизиты / Заполнить реквизиты шапки / Авто. / Выполнен / Реквизиты шапки заполнены.
21 / Норма  / 08:47:24 - 01.11.17 / ЗакрытьФорму / Записать элемент справочника и закрыть форму. / Авто. / Выполнен / Объект записан в форме. Форма закрыта.
22 / Норма  / 08:47:24 - 01.11.17 / ВосстановлениеОбъектовJSON / Сериализация и восстановление объектов / Авто. / Выполнен / Объекты загружены.
24 / Норма  / 08:47:24 - 01.11.17 / ОткрытьФорму / Открыть форму / Авто. / Выполнен / Форма открыта.
25 / Норма  / 08:47:25 - 01.11.17 / ВыполнитьСкрипт / сменить ШК / Авто. / Выполнен / Скрипт выполнен.
26 / Норма  / 08:47:26 - 01.11.17 / НажатьКнопку / Нажать кнопку / Авто. / Выполнен / Кнопка нажата.
27 / Норма  / 08:47:26 - 01.11.17 / ЗакрытьФорму / Закрыть форму. / Авто. / Выполнен / Форма закрыта.
29 / Норма  / 08:47:26 - 01.11.17 / ОткрытьФорму / Открыть форму / Авто. / Выполнен / Форма открыта.
30 / Норма  / 08:47:26 - 01.11.17 / ЗаполнитьРеквизиты / Заполнить реквизиты шапки / Авто. / Выполнен / Заполнение на форме "Дата" не требуется.
30 / Норма  / 08:47:26 - 01.11.17 / ЗаполнитьРеквизиты / Заполнить реквизиты шапки / Авто. / Выполнен / Реквизиты шапки заполнены.
31 / Норма  / 08:47:52 - 01.11.17 / НажатьКнопку / Нажать кнопку / Авто. / Выполнен / Кнопка нажата.
32 / Норма  / 08:47:52 - 01.11.17 / ЗакрытьФорму / Закрыть форму. / Авто. / Выполнен / Форма закрыта.
34 / Норма  / 08:47:53 - 01.11.17 / ОткрытьФорму / Открыть форму / Авто. / Выполнен / Форма открыта.
35 / Норма  / 08:47:54 - 01.11.17 / НажатьКнопку / Нажать кнопку / Авто. / Выполнен / Кнопка нажата.
36 / Норма  / 08:47:54 - 01.11.17 / ЗакрытьФорму / Закрыть форму. / Авто. / Выполнен / Форма закрыта.
38 / Норма  / 08:47:54 - 01.11.17 / ОткрытьФорму / Открыть форму / Авто. / Выполнен / Форма открыта.
39 / Норма  / 08:47:55 - 01.11.17 / НажатьКнопку / Нажать кнопку / Авто. / Выполнен / Кнопка нажата.
40 / Норма  / 08:47:55 - 01.11.17 / ЗакрытьФорму / Закрыть форму. / Авто. / Выполнен / Форма закрыта.
42 / Норма  / 08:47:55 - 01.11.17 / ОткрытьФорму / Открыть форму / Авто. / Выполнен / Форма открыта.
43 / Норма  / 08:47:56 - 01.11.17 / ЗаполнитьРеквизиты / Заполнить реквизиты шапки / Авто. / Выполнен / Реквизиты шапки заполнены.
44 / Норма  / 08:47:57 - 01.11.17 / НажатьКнопку / Нажать кнопку / Авто. / Выполнен / Кнопка нажата.
45 / Норма  / 08:47:57 - 01.11.17 / ЗакрытьФорму / Закрыть форму. / Авто. / Выполнен / Форма закрыта.
РуководительПроизводства
01 ноября 2017 г. 08:47:57 Окончание выполнения теста
Тест выполнен.
20 / Ошибка / 09:09:39 - 01.11.17 / ЗаполнитьРеквизиты / Заполнить реквизиты шапки / Авто. / Выполнен / Элемент формы VIN_РФ находится в состоянии "Только чтение"
20 / Норма  / 09:09:39 - 01.11.17 / ЗаполнитьРеквизиты / Заполнить реквизиты шапки / Авто. / Выполнен / Заполнение на форме "VIN_РФ" не требуется.
20 / Ошибка / 09:09:39 - 01.11.17 / ЗаполнитьРеквизиты / Заполнить реквизиты шапки / Авто. / Выполнен / Элемент формы ИдентификаторУВЭОС находится в состоянии "Только чтение"
20 / Норма  / 09:09:40 - 01.11.17 / ЗаполнитьРеквизиты / Заполнить реквизиты шапки / Авто. / Выполнен / Заполнение на форме "ИдентификаторУВЭОС" не требуется.
20 / Норма  / 09:09:40 - 01.11.17 / ЗаполнитьРеквизиты / Заполнить реквизиты шапки / Авто. / Выполнен / Реквизиты шапки заполнены.
21 / Норма  / 09:09:40 - 01.11.17 / ЗакрытьФорму / Записать элемент справочника и закрыть форму. / Авто. / Выполнен / Объект записан в форме. Форма закрыта.
22 / Норма  / 09:09:40 - 01.11.17 / ВосстановлениеОбъектовJSON / Сериализация и восстановление объектов / Авто. / Выполнен / Объекты загружены.
24 / Норма  / 09:09:40 - 01.11.17 / ОткрытьФорму / Открыть форму / Авто. / Выполнен / Форма открыта.
25 / Норма  / 09:09:40 - 01.11.17 / ВыполнитьСкрипт / сменить ШК / Авто. / Выполнен / Скрипт выполнен.
26 / Норма  / 09:09:41 - 01.11.17 / НажатьКнопку / Нажать кнопку / Авто. / Выполнен / Кнопка нажата.
27 / Норма  / 09:09:41 - 01.11.17 / ЗакрытьФорму / Закрыть форму. / Авто. / Выполнен / Форма закрыта.
29 / Норма  / 09:09:41 - 01.11.17 / ОткрытьФорму / Открыть форму / Авто. / Выполнен / Форма открыта.
30 / Норма  / 09:09:41 - 01.11.17 / ЗаполнитьРеквизиты / Заполнить реквизиты шапки / Авто. / Выполнен / Заполнение на форме "Дата" не требуется.
30 / Норма  / 09:09:41 - 01.11.17 / ЗаполнитьРеквизиты / Заполнить реквизиты шапки / Авто. / Выполнен / Реквизиты шапки заполнены.
31 / Норма  / 09:10:11 - 01.11.17 / НажатьКнопку / Нажать кнопку / Авто. / Выполнен / Кнопка нажата.
32 / Норма  / 09:10:11 - 01.11.17 / ЗакрытьФорму / Закрыть форму. / Авто. / Выполнен / Форма закрыта.
34 / Норма  / 09:10:11 - 01.11.17 / ОткрытьФорму / Открыть форму / Авто. / Выполнен / Форма открыта.
35 / Норма  / 09:10:12 - 01.11.17 / НажатьКнопку / Нажать кнопку / Авто. / Выполнен / Кнопка нажата.
36 / Норма  / 09:10:13 - 01.11.17 / ЗакрытьФорму / Закрыть форму. / Авто. / Выполнен / Форма закрыта.
38 / Норма  / 09:10:13 - 01.11.17 / ОткрытьФорму / Открыть форму / Авто. / Выполнен / Форма открыта.
39 / Норма  / 09:10:14 - 01.11.17 / НажатьКнопку / Нажать кнопку / Авто. / Выполнен / Кнопка нажата.
40 / Норма  / 09:10:14 - 01.11.17 / ЗакрытьФорму / Закрыть форму. / Авто. / Выполнен / Форма закрыта.
42 / Норма  / 09:10:14 - 01.11.17 / ОткрытьФорму / Открыть форму / Авто. / Выполнен / Форма открыта.
43 / Норма  / 09:10:14 - 01.11.17 / ЗаполнитьРеквизиты / Заполнить реквизиты шапки / Авто. / Выполнен / Реквизиты шапки заполнены.
44 / Норма  / 09:10:15 - 01.11.17 / НажатьКнопку / Нажать кнопку / Авто. / Выполнен / Кнопка нажата.
45 / Норма  / 09:10:15 - 01.11.17 / ЗакрытьФорму / Закрыть форму. / Авто. / Выполнен / Форма закрыта.
РуководительПроизводства
01 ноября 2017 г. 09:10:15 Окончание выполнения теста
Тест выполнен.
20 / Ошибка / 10:03:27 - 01.11.17 / ЗаполнитьРеквизиты / Заполнить реквизиты шапки / Авто. / Выполнен / Элемент формы VIN_РФ находится в состоянии "Только чтение"
20 / Норма  / 10:03:27 - 01.11.17 / ЗаполнитьРеквизиты / Заполнить реквизиты шапки / Авто. / Выполнен / Заполнение на форме "VIN_РФ" не требуется.
20 / Ошибка / 10:03:27 - 01.11.17 / ЗаполнитьРеквизиты / Заполнить реквизиты шапки / Авто. / Выполнен / Элемент формы ИдентификаторУВЭОС находится в состоянии "Только чтение"
20 / Норма  / 10:03:27 - 01.11.17 / ЗаполнитьРеквизиты / Заполнить реквизиты шапки / Авто. / Выполнен / Заполнение на форме "ИдентификаторУВЭОС" не требуется.
20 / Норма  / 10:03:27 - 01.11.17 / ЗаполнитьРеквизиты / Заполнить реквизиты шапки / Авто. / Выполнен / Реквизиты шапки заполнены.
21 / Норма  / 10:03:28 - 01.11.17 / ЗакрытьФорму / Записать элемент справочника и закрыть форму. / Авто. / Выполнен / Объект записан в форме. Форма закрыта.
22 / Норма  / 10:03:28 - 01.11.17 / ВосстановлениеОбъектовJSON / Сериализация и восстановление объектов / Авто. / Выполнен / Объекты загружены.
24 / Норма  / 10:03:28 - 01.11.17 / ОткрытьФорму / Открыть форму / Авто. / Выполнен / Форма открыта.
25 / Норма  / 10:03:29 - 01.11.17 / ВыполнитьСкрипт / сменить ШК / Авто. / Выполнен / Скрипт выполнен.
26 / Норма  / 10:03:29 - 01.11.17 / НажатьКнопку / Нажать кнопку / Авто. / Выполнен / Кнопка нажата.
27 / Норма  / 10:03:29 - 01.11.17 / ЗакрытьФорму / Закрыть форму. / Авто. / Выполнен / Форма закрыта.
29 / Норма  / 10:03:29 - 01.11.17 / ОткрытьФорму / Открыть форму / Авто. / Выполнен / Форма открыта.
30 / Норма  / 10:03:29 - 01.11.17 / ЗаполнитьРеквизиты / Заполнить реквизиты шапки / Авто. / Выполнен / Заполнение на форме "Дата" не требуется.
30 / Норма  / 10:03:29 - 01.11.17 / ЗаполнитьРеквизиты / Заполнить реквизиты шапки / Авто. / Выполнен / Реквизиты шапки заполнены.
31 / Норма  / 10:03:57 - 01.11.17 / НажатьКнопку / Нажать кнопку / Авто. / Выполнен / Кнопка нажата.
32 / Норма  / 10:03:57 - 01.11.17 / ЗакрытьФорму / Закрыть форму. / Авто. / Выполнен / Форма закрыта.
34 / Норма  / 10:03:57 - 01.11.17 / ОткрытьФорму / Открыть форму / Авто. / Выполнен / Форма открыта.
35 / Норма  / 10:03:59 - 01.11.17 / НажатьКнопку / Нажать кнопку / Авто. / Выполнен / Кнопка нажата.
36 / Норма  / 10:03:59 - 01.11.17 / ЗакрытьФорму / Закрыть форму. / Авто. / Выполнен / Форма закрыта.
38 / Норма  / 10:03:59 - 01.11.17 / ОткрытьФорму / Открыть форму / Авто. / Выполнен / Форма открыта.
39 / Норма  / 10:04:00 - 01.11.17 / НажатьКнопку / Нажать кнопку / Авто. / Выполнен / Кнопка нажата.
40 / Норма  / 10:04:00 - 01.11.17 / ЗакрытьФорму / Закрыть форму. / Авто. / Выполнен / Форма закрыта.
42 / Норма  / 10:04:00 - 01.11.17 / ОткрытьФорму / Открыть форму / Авто. / Выполнен / Форма открыта.
43 / Норма  / 10:04:00 - 01.11.17 / ЗаполнитьРеквизиты / Заполнить реквизиты шапки / Авто. / Выполнен / Реквизиты шапки заполнены.
44 / Норма  / 10:04:01 - 01.11.17 / НажатьКнопку / Нажать кнопку / Авто. / Выполнен / Кнопка нажата.
45 / Норма  / 10:04:01 - 01.11.17 / ЗакрытьФорму / Закрыть форму. / Авто. / Выполнен / Форма закрыта.
РуководительПроизводства
01 ноября 2017 г. 10:04:01 Окончание выполнения теста
Тест выполнен.
